1 1 1
1 10 20
10 20 21
150 200 125
1 1000000 525
571020 781506 509
473176 394566 449
25000 701537 509
829460 565925 509
138658 492827 449
953917 140051 525
61628 461924 449
226810 203337 386
33236 768336 509
818961 807079 450
404969 759515 509
561471 876765 525
215474 430411 449
956462 664370 525
858847 779642 525
147569 107652 375
553209 815206 509
235800 978772 525
638498 46436 509
15394 969507 525
270921 62957 443
598846 577503 434
918579 203877 525
832110 671666 504
205308 538829 470
175095 203669 365
911954 864596 476
885391 3586 525
909826 512632 525
625842 967513 525
831596 731490 468
380076 960289 525
731944 537093 509
858437 243505 525
904170 448620 525
479455 26923 449
211452 549273 470
29421 131926 354
594100 421237 470
990863 606430 525
243404 622811 470
836950 251800 509
218635 496732 449
243147 402263 441
76334 213354 383
475479 247707 449
437348 343221 449
15901 286070 443
710631 707700 380
282339 123947 443
288223 813184 509
406636 329499 441
932799 600943 525
495309 304962 449
375876 877383 525
287943 986509 525
596165 122996 470
471424 100382 449
116892 528225 470
388557 951766 525
857969 690368 525
605310 868064 525
193441 759297 509
744947 740572 362
796321 152232 509
887213 464745 525
280982 145655 443
123073 849172 525
862354 664888 525
214152 574796 470
944797 6407 525
166649 251185 443
864101 508343 525
48463 388135 443
520994 249339 470
147058 858699 525
156569 231440 443
525644 648296 509
529112 230485 470
980435 542585 525
461823 9567 449
897507 421415 525
948646 760665 525
984663 402999 525
5255 216955 386
553976 692299 509
811490 486856 509
578748 231489 470
824190 941689 525
169997 975996 525
548399 127240 470
160073 697377 509
151030 885336 525
265970 807457 509
658238 953362 525
177233 432220 449
480407 121527 449
560588 976275 525
996788 295354 525
923396 894112 476
692197 913741 525
38237 557323 470
803483 702178 504
344135 571498 470
512396 823118 509
556492 609726 434
103063 210968 383
361112 394738 436
48432 283297 443
467769 413323 444
876054 613183 525
856678 477874 525
585571 40410 470
247144 938237 525
506597 227053 449
407260 188899 443
878807 727803 525
24092 786165 509
409051 428269 449
626538 636585 416
74280 705056 509
471140 900629 525
708641 427549 509
85882 334725 443
368212 4321 443
683587 644383 442
445495 200211 449
207137 879781 525
860177 764453 525
259734 548936 470
599251 696767 509
957488 628684 525
359390 541160 470
967513 211675 525
948330 380932 525
667571 853200 525
940455 695583 525
839572 957681 507
345933 628598 509
113584 7120 354
37854 384586 443
47872 711043 509
26120 337418 443
236887 672745 509
728142 410549 509
756859 806800 468
192830 702051 509
138689 112437 349
206347 698022 509
92366 750728 509
51997 237534 443
612063 692882 509
23322 116701 354
20648 243753 443
204685 736343 509
205068 155291 383
259657 116425 443
901094 476935 525
533592 236431 470
970629 589131 525
902247 737363 525
926123 490087 525
900726 170571 525
714948 109962 509
856827 934887 476
428005 128235 449
517592 703293 509
593570 162882 470
454202 24723 449
921432 345346 525
275432 638316 509
971977 812163 525
797109 342879 509
570439 899695 525
848754 963025 507
346960 813962 509
215085 568413 470
867827 451721 525
734549 163668 509
381934 261449 441
201592 841479 525
192851 783469 509
627867 830058 504
755155 163863 509
377658 430163 449
771383 123615 509
380446 116341 443
678005 485644 509
502247 951374 525
79564 16799 351
827486 431777 509
886946 987344 507
485116 533414 470
504115 17695 449
301262 867853 525
